lab_2/.Xil/Vivado-26300-DESKTOP-N45N4LQ/hw_ila_data_1/zip_work/waveform.vcd
$date
        2022-Nov-15 16:35:36
$end
$version
        Vivado v2019.2 (64-bit)
$end
$timescale
        1ps
$end
$scope module dut $end
$var reg 32 " U_cpu/inst [31:0] $end
$var reg 32 B debug_wb_pc [31:0] $end
$var reg 32 b debug_wb_rf_wdata [31:0] $end
$var reg 5 $" debug_wb_rf_addr [4:0] $end
$var reg 1 )" clk_IBUF_BUFG $end
$var reg 1 *" debug_wb_rf_wen $end
$var reg 1 +" p_0_in $end
$var reg 1 ," _TRIGGER $end
$var reg 1 -" _WINDOW $end
$var reg 1 ." _GAP $end
$upscope $end
$enddefinitions $end
#0
$dumpvars
b10001100000000010000000000000100 "
b0 B
b0 b
b1 $"
0)"
1*"
0+"
0,"
1-"
0."
$end
#511
1+"
#512
1,"
#513
b10001100000000100000000000001000 "
b100 B
b10 b
b10 $"
#514
b1000100001100000100000 "
b1000 B
b11 $"
#515
b1000100010000000100010 "
b1100 B
b11111111111111111111111111111110 b
b100 $"
#516
b1000100010100000100100 "
b10000 B
b0 b
b101 $"
#517
b1000100011000000100101 "
b10100 B
b10 b
b110 $"
#518
b1000100011100000100110 "
b11000 B
b111 $"
#519
b1000100100000000101010 "
b11100 B
b1 b
b1000 $"
#520
b10101100000000010000000000001000 "
b100000 B
b0 b
b0 $"
0*"
#521
b10101100000000100000000000000100 "
b100100 B
#522
b10000000001010000000000000010 "
b101000 B
#523
b1000000000000000000000001111 "
b110100 B
#524
b10001100000000000000000000000000 "
b111100 B
b10 b
1*"
#525
b0 "
b1000000 B
b0 b
0*"
#526
b1000000000000000000000000000 "
b1000100 B
#527
b10001100000000010000000000000100 "
b0 B
b1 $"
1*"
#528
b10001100000000100000000000001000 "
b100 B
b10 b
b10 $"
#529
b1000100001100000100000 "
b1000 B
b11 $"
#530
b1000100010000000100010 "
b1100 B
b11111111111111111111111111111110 b
b100 $"
#531
b1000100010100000100100 "
b10000 B
b0 b
b101 $"
#532
b1000100011000000100101 "
b10100 B
b10 b
b110 $"
#533
b1000100011100000100110 "
b11000 B
b111 $"
#534
b1000100100000000101010 "
b11100 B
b1 b
b1000 $"
#535
b10101100000000010000000000001000 "
b100000 B
b0 b
b0 $"
0*"
#536
b10101100000000100000000000000100 "
b100100 B
#537
b10000000001010000000000000010 "
b101000 B
#538
b1000000000000000000000001111 "
b110100 B
#539
b10001100000000000000000000000000 "
b111100 B
b10 b
1*"
#540
b0 "
b1000000 B
b0 b
0*"
#541
b1000000000000000000000000000 "
b1000100 B
#542
b10001100000000010000000000000100 "
b0 B
b1 $"
1*"
#543
b10001100000000100000000000001000 "
b100 B
b10 b
b10 $"
#544
b1000100001100000100000 "
b1000 B
b11 $"
#545
b1000100010000000100010 "
b1100 B
b11111111111111111111111111111110 b
b100 $"
#546
b1000100010100000100100 "
b10000 B
b0 b
b101 $"
#547
b1000100011000000100101 "
b10100 B
b10 b
b110 $"
#548
b1000100011100000100110 "
b11000 B
b111 $"
#549
b1000100100000000101010 "
b11100 B
b1 b
b1000 $"
#550
b10101100000000010000000000001000 "
b100000 B
b0 b
b0 $"
0*"
#551
b10101100000000100000000000000100 "
b100100 B
#552
b10000000001010000000000000010 "
b101000 B
#553
b1000000000000000000000001111 "
b110100 B
#554
b10001100000000000000000000000000 "
b111100 B
b10 b
1*"
#555
b0 "
b1000000 B
b0 b
0*"
#556
b1000000000000000000000000000 "
b1000100 B
#557
b10001100000000010000000000000100 "
b0 B
b1 $"
1*"
#558
b10001100000000100000000000001000 "
b100 B
b10 b
b10 $"
#559
b1000100001100000100000 "
b1000 B
b11 $"
#560
b1000100010000000100010 "
b1100 B
b11111111111111111111111111111110 b
b100 $"
#561
b1000100010100000100100 "
b10000 B
b0 b
b101 $"
#562
b1000100011000000100101 "
b10100 B
b10 b
b110 $"
#563
b1000100011100000100110 "
b11000 B
b111 $"
#564
b1000100100000000101010 "
b11100 B
b1 b
b1000 $"
#565
b10101100000000010000000000001000 "
b100000 B
b0 b
b0 $"
0*"
#566
b10101100000000100000000000000100 "
b100100 B
#567
b10000000001010000000000000010 "
b101000 B
#568
b1000000000000000000000001111 "
b110100 B
#569
b10001100000000000000000000000000 "
b111100 B
b10 b
1*"
#570
b0 "
b1000000 B
b0 b
0*"
#571
b1000000000000000000000000000 "
b1000100 B
#572
b10001100000000010000000000000100 "
b0 B
b1 $"
1*"
#573
b10001100000000100000000000001000 "
b100 B
b10 b
b10 $"
#574
b1000100001100000100000 "
b1000 B
b11 $"
#575
b1000100010000000100010 "
b1100 B
b11111111111111111111111111111110 b
b100 $"
#576
b1000100010100000100100 "
b10000 B
b0 b
b101 $"
#577
b1000100011000000100101 "
b10100 B
b10 b
b110 $"
#578
b1000100011100000100110 "
b11000 B
b111 $"
#579
b1000100100000000101010 "
b11100 B
b1 b
b1000 $"
#580
b10101100000000010000000000001000 "
b100000 B
b0 b
b0 $"
0*"
#581
b10101100000000100000000000000100 "
b100100 B
#582
b10000000001010000000000000010 "
b101000 B
#583
b1000000000000000000000001111 "
b110100 B
#584
b10001100000000000000000000000000 "
b111100 B
b10 b
1*"
#585
b0 "
b1000000 B
b0 b
0*"
#586
b1000000000000000000000000000 "
b1000100 B
#587
b10001100000000010000000000000100 "
b0 B
b1 $"
1*"
#588
b10001100000000100000000000001000 "
b100 B
b10 b
b10 $"
#589
b1000100001100000100000 "
b1000 B
b11 $"
#590
b1000100010000000100010 "
b1100 B
b11111111111111111111111111111110 b
b100 $"
#591
b1000100010100000100100 "
b10000 B
b0 b
b101 $"
#592
b1000100011000000100101 "
b10100 B
b10 b
b110 $"
#593
b1000100011100000100110 "
b11000 B
b111 $"
#594
b1000100100000000101010 "
b11100 B
b1 b
b1000 $"
#595
b10101100000000010000000000001000 "
b100000 B
b0 b
b0 $"
0*"
#596
b10101100000000100000000000000100 "
b100100 B
#597
b10000000001010000000000000010 "
b101000 B
#598
b1000000000000000000000001111 "
b110100 B
#599
b10001100000000000000000000000000 "
b111100 B
b10 b
1*"
#600
b0 "
b1000000 B
b0 b
0*"
#601
b1000000000000000000000000000 "
b1000100 B
#602
b10001100000000010000000000000100 "
b0 B
b1 $"
1*"
#603
b10001100000000100000000000001000 "
b100 B
b10 b
b10 $"
#604
b1000100001100000100000 "
b1000 B
b11 $"
#605
b1000100010000000100010 "
b1100 B
b11111111111111111111111111111110 b
b100 $"
#606
b1000100010100000100100 "
b10000 B
b0 b
b101 $"
#607
b1000100011000000100101 "
b10100 B
b10 b
b110 $"
#608
b1000100011100000100110 "
b11000 B
b111 $"
#609
b1000100100000000101010 "
b11100 B
b1 b
b1000 $"
#610
b10101100000000010000000000001000 "
b100000 B
b0 b
b0 $"
0*"
#611
b10101100000000100000000000000100 "
b100100 B
#612
b10000000001010000000000000010 "
b101000 B
#613
b1000000000000000000000001111 "
b110100 B
#614
b10001100000000000000000000000000 "
b111100 B
b10 b
1*"
#615
b0 "
b1000000 B
b0 b
0*"
#616
b1000000000000000000000000000 "
b1000100 B
#617
b10001100000000010000000000000100 "
b0 B
b1 $"
1*"
#618
b10001100000000100000000000001000 "
b100 B
b10 b
b10 $"
#619
b1000100001100000100000 "
b1000 B
b11 $"
#620
b1000100010000000100010 "
b1100 B
b11111111111111111111111111111110 b
b100 $"
#621
b1000100010100000100100 "
b10000 B
b0 b
b101 $"
#622
b1000100011000000100101 "
b10100 B
b10 b
b110 $"
#623
b1000100011100000100110 "
b11000 B
b111 $"
#624
b1000100100000000101010 "
b11100 B
b1 b
b1000 $"
#625
b10101100000000010000000000001000 "
b100000 B
b0 b
b0 $"
0*"
#626
b10101100000000100000000000000100 "
b100100 B
#627
b10000000001010000000000000010 "
b101000 B
#628
b1000000000000000000000001111 "
b110100 B
#629
b10001100000000000000000000000000 "
b111100 B
b10 b
1*"
#630
b0 "
b1000000 B
b0 b
0*"
#631
b1000000000000000000000000000 "
b1000100 B
#632
b10001100000000010000000000000100 "
b0 B
b1 $"
1*"
#633
b10001100000000100000000000001000 "
b100 B
b10 b
b10 $"
#634
b1000100001100000100000 "
b1000 B
b11 $"
#635
b1000100010000000100010 "
b1100 B
b11111111111111111111111111111110 b
b100 $"
#636
b1000100010100000100100 "
b10000 B
b0 b
b101 $"
#637
b1000100011000000100101 "
b10100 B
b10 b
b110 $"
#638
b1000100011100000100110 "
b11000 B
b111 $"
#639
b1000100100000000101010 "
b11100 B
b1 b
b1000 $"
#640
b10101100000000010000000000001000 "
b100000 B
b0 b
b0 $"
0*"
#641
b10101100000000100000000000000100 "
b100100 B
#642
b10000000001010000000000000010 "
b101000 B
#643
b1000000000000000000000001111 "
b110100 B
#644
b10001100000000000000000000000000 "
b111100 B
b10 b
1*"
#645
b0 "
b1000000 B
b0 b
0*"
#646
b1000000000000000000000000000 "
b1000100 B
#647
b10001100000000010000000000000100 "
b0 B
b1 $"
1*"
#648
b10001100000000100000000000001000 "
b100 B
b10 b
b10 $"
#649
b1000100001100000100000 "
b1000 B
b11 $"
#650
b1000100010000000100010 "
b1100 B
b11111111111111111111111111111110 b
b100 $"
#651
b1000100010100000100100 "
b10000 B
b0 b
b101 $"
#652
b1000100011000000100101 "
b10100 B
b10 b
b110 $"
#653
b1000100011100000100110 "
b11000 B
b111 $"
#654
b1000100100000000101010 "
b11100 B
b1 b
b1000 $"
#655
b10101100000000010000000000001000 "
b100000 B
b0 b
b0 $"
0*"
#656
b10101100000000100000000000000100 "
b100100 B
#657
b10000000001010000000000000010 "
b101000 B
#658
b1000000000000000000000001111 "
b110100 B
#659
b10001100000000000000000000000000 "
b111100 B
b10 b
1*"
#660
b0 "
b1000000 B
b0 b
0*"
#661
b1000000000000000000000000000 "
b1000100 B
#662
b10001100000000010000000000000100 "
b0 B
b1 $"
1*"
#663
b10001100000000100000000000001000 "
b100 B
b10 b
b10 $"
#664
b1000100001100000100000 "
b1000 B
b11 $"
#665
b1000100010000000100010 "
b1100 B
b11111111111111111111111111111110 b
b100 $"
#666
b1000100010100000100100 "
b10000 B
b0 b
b101 $"
#667
b1000100011000000100101 "
b10100 B
b10 b
b110 $"
#668
b1000100011100000100110 "
b11000 B
b111 $"
#669
b1000100100000000101010 "
b11100 B
b1 b
b1000 $"
#670
b10101100000000010000000000001000 "
b100000 B
b0 b
b0 $"
0*"
#671
b10101100000000100000000000000100 "
b100100 B
#672
b10000000001010000000000000010 "
b101000 B
#673
b1000000000000000000000001111 "
b110100 B
#674
b10001100000000000000000000000000 "
b111100 B
b10 b
1*"
#675
b0 "
b1000000 B
b0 b
0*"
#676
b1000000000000000000000000000 "
b1000100 B
#677
b10001100000000010000000000000100 "
b0 B
b1 $"
1*"
#678
b10001100000000100000000000001000 "
b100 B
b10 b
b10 $"
#679
b1000100001100000100000 "
b1000 B
b11 $"
#680
b1000100010000000100010 "
b1100 B
b11111111111111111111111111111110 b
b100 $"
#681
b1000100010100000100100 "
b10000 B
b0 b
b101 $"
#682
b1000100011000000100101 "
b10100 B
b10 b
b110 $"
#683
b1000100011100000100110 "
b11000 B
b111 $"
#684
b1000100100000000101010 "
b11100 B
b1 b
b1000 $"
#685
b10101100000000010000000000001000 "
b100000 B
b0 b
b0 $"
0*"
#686
b10101100000000100000000000000100 "
b100100 B
#687
b10000000001010000000000000010 "
b101000 B
#688
b1000000000000000000000001111 "
b110100 B
#689
b10001100000000000000000000000000 "
b111100 B
b10 b
1*"
#690
b0 "
b1000000 B
b0 b
0*"
#691
b1000000000000000000000000000 "
b1000100 B
#692
b10001100000000010000000000000100 "
b0 B
b1 $"
1*"
#693
b10001100000000100000000000001000 "
b100 B
b10 b
b10 $"
#694
b1000100001100000100000 "
b1000 B
b11 $"
#695
b1000100010000000100010 "
b1100 B
b11111111111111111111111111111110 b
b100 $"
#696
b1000100010100000100100 "
b10000 B
b0 b
b101 $"
#697
b1000100011000000100101 "
b10100 B
b10 b
b110 $"
#698
b1000100011100000100110 "
b11000 B
b111 $"
#699
b1000100100000000101010 "
b11100 B
b1 b
b1000 $"
#700
b10101100000000010000000000001000 "
b100000 B
b0 b
b0 $"
0*"
#701
b10101100000000100000000000000100 "
b100100 B
#702
b10000000001010000000000000010 "
b101000 B
#703
b1000000000000000000000001111 "
b110100 B
#704
b10001100000000000000000000000000 "
b111100 B
b10 b
1*"
#705
b0 "
b1000000 B
b0 b
0*"
#706
b1000000000000000000000000000 "
b1000100 B
#707
b10001100000000010000000000000100 "
b0 B
b1 $"
1*"
#708
b10001100000000100000000000001000 "
b100 B
b10 b
b10 $"
#709
b1000100001100000100000 "
b1000 B
b11 $"
#710
b1000100010000000100010 "
b1100 B
b11111111111111111111111111111110 b
b100 $"
#711
b1000100010100000100100 "
b10000 B
b0 b
b101 $"
#712
b1000100011000000100101 "
b10100 B
b10 b
b110 $"
#713
b1000100011100000100110 "
b11000 B
b111 $"
#714
b1000100100000000101010 "
b11100 B
b1 b
b1000 $"
#715
b10101100000000010000000000001000 "
b100000 B
b0 b
b0 $"
0*"
#716
b10101100000000100000000000000100 "
b100100 B
#717
b10000000001010000000000000010 "
b101000 B
#718
b1000000000000000000000001111 "
b110100 B
#719
b10001100000000000000000000000000 "
b111100 B
b10 b
1*"
#720
b0 "
b1000000 B
b0 b
0*"
#721
b1000000000000000000000000000 "
b1000100 B
#722
b10001100000000010000000000000100 "
b0 B
b1 $"
1*"
#723
b10001100000000100000000000001000 "
b100 B
b10 b
b10 $"
#724
b1000100001100000100000 "
b1000 B
b11 $"
#725
b1000100010000000100010 "
b1100 B
b11111111111111111111111111111110 b
b100 $"
#726
b1000100010100000100100 "
b10000 B
b0 b
b101 $"
#727
b1000100011000000100101 "
b10100 B
b10 b
b110 $"
#728
b1000100011100000100110 "
b11000 B
b111 $"
#729
b1000100100000000101010 "
b11100 B
b1 b
b1000 $"
#730
b10101100000000010000000000001000 "
b100000 B
b0 b
b0 $"
0*"
#731
b10101100000000100000000000000100 "
b100100 B
#732
b10000000001010000000000000010 "
b101000 B
#733
b1000000000000000000000001111 "
b110100 B
#734
b10001100000000000000000000000000 "
b111100 B
b10 b
1*"
#735
b0 "
b1000000 B
b0 b
0*"
#736
b1000000000000000000000000000 "
b1000100 B
#737
b10001100000000010000000000000100 "
b0 B
b1 $"
1*"
#738
b10001100000000100000000000001000 "
b100 B
b10 b
b10 $"
#739
b1000100001100000100000 "
b1000 B
b11 $"
#740
b1000100010000000100010 "
b1100 B
b11111111111111111111111111111110 b
b100 $"
#741
b1000100010100000100100 "
b10000 B
b0 b
b101 $"
#742
b1000100011000000100101 "
b10100 B
b10 b
b110 $"
#743
b1000100011100000100110 "
b11000 B
b111 $"
#744
b1000100100000000101010 "
b11100 B
b1 b
b1000 $"
#745
b10101100000000010000000000001000 "
b100000 B
b0 b
b0 $"
0*"
#746
b10101100000000100000000000000100 "
b100100 B
#747
b10000000001010000000000000010 "
b101000 B
#748
b1000000000000000000000001111 "
b110100 B
#749
b10001100000000000000000000000000 "
b111100 B
b10 b
1*"
#750
b0 "
b1000000 B
b0 b
0*"
#751
b1000000000000000000000000000 "
b1000100 B
#752
b10001100000000010000000000000100 "
b0 B
b1 $"
1*"
#753
b10001100000000100000000000001000 "
b100 B
b10 b
b10 $"
#754
b1000100001100000100000 "
b1000 B
b11 $"
#755
b1000100010000000100010 "
b1100 B
b11111111111111111111111111111110 b
b100 $"
#756
b1000100010100000100100 "
b10000 B
b0 b
b101 $"
#757
b1000100011000000100101 "
b10100 B
b10 b
b110 $"
#758
b1000100011100000100110 "
b11000 B
b111 $"
#759
b1000100100000000101010 "
b11100 B
b1 b
b1000 $"
#760
b10101100000000010000000000001000 "
b100000 B
b0 b
b0 $"
0*"
#761
b10101100000000100000000000000100 "
b100100 B
#762
b10000000001010000000000000010 "
b101000 B
#763
b1000000000000000000000001111 "
b110100 B
#764
b10001100000000000000000000000000 "
b111100 B
b10 b
1*"
#765
b0 "
b1000000 B
b0 b
0*"
#766
b1000000000000000000000000000 "
b1000100 B
#767
b10001100000000010000000000000100 "
b0 B
b1 $"
1*"
#768
b10001100000000100000000000001000 "
b100 B
b10 b
b10 $"
#769
b1000100001100000100000 "
b1000 B
b11 $"
#770
b1000100010000000100010 "
b1100 B
b11111111111111111111111111111110 b
b100 $"
#771
b1000100010100000100100 "
b10000 B
b0 b
b101 $"
#772
b1000100011000000100101 "
b10100 B
b10 b
b110 $"
#773
b1000100011100000100110 "
b11000 B
b111 $"
#774
b1000100100000000101010 "
b11100 B
b1 b
b1000 $"
#775
b10101100000000010000000000001000 "
b100000 B
b0 b
b0 $"
0*"
#776
b10101100000000100000000000000100 "
b100100 B
#777
b10000000001010000000000000010 "
b101000 B
#778
b1000000000000000000000001111 "
b110100 B
#779
b10001100000000000000000000000000 "
b111100 B
b10 b
1*"
#780
b0 "
b1000000 B
b0 b
0*"
#781
b1000000000000000000000000000 "
b1000100 B
#782
b10001100000000010000000000000100 "
b0 B
b1 $"
1*"
#783
b10001100000000100000000000001000 "
b100 B
b10 b
b10 $"
#784
b1000100001100000100000 "
b1000 B
b11 $"
#785
b1000100010000000100010 "
b1100 B
b11111111111111111111111111111110 b
b100 $"
#786
b1000100010100000100100 "
b10000 B
b0 b
b101 $"
#787
b1000100011000000100101 "
b10100 B
b10 b
b110 $"
#788
b1000100011100000100110 "
b11000 B
b111 $"
#789
b1000100100000000101010 "
b11100 B
b1 b
b1000 $"
#790
b10101100000000010000000000001000 "
b100000 B
b0 b
b0 $"
0*"
#791
b10101100000000100000000000000100 "
b100100 B
#792
b10000000001010000000000000010 "
b101000 B
#793
b1000000000000000000000001111 "
b110100 B
#794
b10001100000000000000000000000000 "
b111100 B
b10 b
1*"
#795
b0 "
b1000000 B
b0 b
0*"
#796
b1000000000000000000000000000 "
b1000100 B
#797
b10001100000000010000000000000100 "
b0 B
b1 $"
1*"
#798
b10001100000000100000000000001000 "
b100 B
b10 b
b10 $"
#799
b1000100001100000100000 "
b1000 B
b11 $"
#800
b1000100010000000100010 "
b1100 B
b11111111111111111111111111111110 b
b100 $"
#801
b1000100010100000100100 "
b10000 B
b0 b
b101 $"
#802
b1000100011000000100101 "
b10100 B
b10 b
b110 $"
#803
b1000100011100000100110 "
b11000 B
b111 $"
#804
b1000100100000000101010 "
b11100 B
b1 b
b1000 $"
#805
b10101100000000010000000000001000 "
b100000 B
b0 b
b0 $"
0*"
#806
b10101100000000100000000000000100 "
b100100 B
#807
b10000000001010000000000000010 "
b101000 B
#808
b1000000000000000000000001111 "
b110100 B
#809
b10001100000000000000000000000000 "
b111100 B
b10 b
1*"
#810
b0 "
b1000000 B
b0 b
0*"
#811
b1000000000000000000000000000 "
b1000100 B
#812
b10001100000000010000000000000100 "
b0 B
b1 $"
1*"
#813
b10001100000000100000000000001000 "
b100 B
b10 b
b10 $"
#814
b1000100001100000100000 "
b1000 B
b11 $"
#815
b1000100010000000100010 "
b1100 B
b11111111111111111111111111111110 b
b100 $"
#816
b1000100010100000100100 "
b10000 B
b0 b
b101 $"
#817
b1000100011000000100101 "
b10100 B
b10 b
b110 $"
#818
b1000100011100000100110 "
b11000 B
b111 $"
#819
b1000100100000000101010 "
b11100 B
b1 b
b1000 $"
#820
b10101100000000010000000000001000 "
b100000 B
b0 b
b0 $"
0*"
#821
b10101100000000100000000000000100 "
b100100 B
#822
b10000000001010000000000000010 "
b101000 B
#823
b1000000000000000000000001111 "
b110100 B
#824
b10001100000000000000000000000000 "
b111100 B
b10 b
1*"
#825
b0 "
b1000000 B
b0 b
0*"
#826
b1000000000000000000000000000 "
b1000100 B
#827
b10001100000000010000000000000100 "
b0 B
b1 $"
1*"
#828
b10001100000000100000000000001000 "
b100 B
b10 b
b10 $"
#829
b1000100001100000100000 "
b1000 B
b11 $"
#830
b1000100010000000100010 "
b1100 B
b11111111111111111111111111111110 b
b100 $"
#831
b1000100010100000100100 "
b10000 B
b0 b
b101 $"
#832
b1000100011000000100101 "
b10100 B
b10 b
b110 $"
#833
b1000100011100000100110 "
b11000 B
b111 $"
#834
b1000100100000000101010 "
b11100 B
b1 b
b1000 $"
#835
b10101100000000010000000000001000 "
b100000 B
b0 b
b0 $"
0*"
#836
b10101100000000100000000000000100 "
b100100 B
#837
b10000000001010000000000000010 "
b101000 B
#838
b1000000000000000000000001111 "
b110100 B
#839
b10001100000000000000000000000000 "
b111100 B
b10 b
1*"
#840
b0 "
b1000000 B
b0 b
0*"
#841
b1000000000000000000000000000 "
b1000100 B
#842
b10001100000000010000000000000100 "
b0 B
b1 $"
1*"
#843
b10001100000000100000000000001000 "
b100 B
b10 b
b10 $"
#844
b1000100001100000100000 "
b1000 B
b11 $"
#845
b1000100010000000100010 "
b1100 B
b11111111111111111111111111111110 b
b100 $"
#846
b1000100010100000100100 "
b10000 B
b0 b
b101 $"
#847
b1000100011000000100101 "
b10100 B
b10 b
b110 $"
#848
b1000100011100000100110 "
b11000 B
b111 $"
#849
b1000100100000000101010 "
b11100 B
b1 b
b1000 $"
#850
b10101100000000010000000000001000 "
b100000 B
b0 b
b0 $"
0*"
#851
b10101100000000100000000000000100 "
b100100 B
#852
b10000000001010000000000000010 "
b101000 B
#853
b1000000000000000000000001111 "
b110100 B
#854
b10001100000000000000000000000000 "
b111100 B
b10 b
1*"
#855
b0 "
b1000000 B
b0 b
0*"
#856
b1000000000000000000000000000 "
b1000100 B
#857
b10001100000000010000000000000100 "
b0 B
b1 $"
1*"
#858
b10001100000000100000000000001000 "
b100 B
b10 b
b10 $"
#859
b1000100001100000100000 "
b1000 B
b11 $"
#860
b1000100010000000100010 "
b1100 B
b11111111111111111111111111111110 b
b100 $"
#861
b1000100010100000100100 "
b10000 B
b0 b
b101 $"
#862
b1000100011000000100101 "
b10100 B
b10 b
b110 $"
#863
b1000100011100000100110 "
b11000 B
b111 $"
#864
b1000100100000000101010 "
b11100 B
b1 b
b1000 $"
#865
b10101100000000010000000000001000 "
b100000 B
b0 b
b0 $"
0*"
#866
b10101100000000100000000000000100 "
b100100 B
#867
b10000000001010000000000000010 "
b101000 B
#868
b1000000000000000000000001111 "
b110100 B
#869
b10001100000000000000000000000000 "
b111100 B
b10 b
1*"
#870
b0 "
b1000000 B
b0 b
0*"
#871
b1000000000000000000000000000 "
b1000100 B
#872
b10001100000000010000000000000100 "
b0 B
b1 $"
1*"
#873
b10001100000000100000000000001000 "
b100 B
b10 b
b10 $"
#874
b1000100001100000100000 "
b1000 B
b11 $"
#875
b1000100010000000100010 "
b1100 B
b11111111111111111111111111111110 b
b100 $"
#876
b1000100010100000100100 "
b10000 B
b0 b
b101 $"
#877
b1000100011000000100101 "
b10100 B
b10 b
b110 $"
#878
b1000100011100000100110 "
b11000 B
b111 $"
#879
b1000100100000000101010 "
b11100 B
b1 b
b1000 $"
#880
b10101100000000010000000000001000 "
b100000 B
b0 b
b0 $"
0*"
#881
b10101100000000100000000000000100 "
b100100 B
#882
b10000000001010000000000000010 "
b101000 B
#883
b1000000000000000000000001111 "
b110100 B
#884
b10001100000000000000000000000000 "
b111100 B
b10 b
1*"
#885
b0 "
b1000000 B
b0 b
0*"
#886
b1000000000000000000000000000 "
b1000100 B
#887
b10001100000000010000000000000100 "
b0 B
b1 $"
1*"
#888
b10001100000000100000000000001000 "
b100 B
b10 b
b10 $"
#889
b1000100001100000100000 "
b1000 B
b11 $"
#890
b1000100010000000100010 "
b1100 B
b11111111111111111111111111111110 b
b100 $"
#891
b1000100010100000100100 "
b10000 B
b0 b
b101 $"
#892
b1000100011000000100101 "
b10100 B
b10 b
b110 $"
#893
b1000100011100000100110 "
b11000 B
b111 $"
#894
b1000100100000000101010 "
b11100 B
b1 b
b1000 $"
#895
b10101100000000010000000000001000 "
b100000 B
b0 b
b0 $"
0*"
#896
b10101100000000100000000000000100 "
b100100 B
#897
b10000000001010000000000000010 "
b101000 B
#898
b1000000000000000000000001111 "
b110100 B
#899
b10001100000000000000000000000000 "
b111100 B
b10 b
1*"
#900
b0 "
b1000000 B
b0 b
0*"
#901
b1000000000000000000000000000 "
b1000100 B
#902
b10001100000000010000000000000100 "
b0 B
b1 $"
1*"
#903
b10001100000000100000000000001000 "
b100 B
b10 b
b10 $"
#904
b1000100001100000100000 "
b1000 B
b11 $"
#905
b1000100010000000100010 "
b1100 B
b11111111111111111111111111111110 b
b100 $"
#906
b1000100010100000100100 "
b10000 B
b0 b
b101 $"
#907
b1000100011000000100101 "
b10100 B
b10 b
b110 $"
#908
b1000100011100000100110 "
b11000 B
b111 $"
#909
b1000100100000000101010 "
b11100 B
b1 b
b1000 $"
#910
b10101100000000010000000000001000 "
b100000 B
b0 b
b0 $"
0*"
#911
b10101100000000100000000000000100 "
b100100 B
#912
b10000000001010000000000000010 "
b101000 B
#913
b1000000000000000000000001111 "
b110100 B
#914
b10001100000000000000000000000000 "
b111100 B
b10 b
1*"
#915
b0 "
b1000000 B
b0 b
0*"
#916
b1000000000000000000000000000 "
b1000100 B
#917
b10001100000000010000000000000100 "
b0 B
b1 $"
1*"
#918
b10001100000000100000000000001000 "
b100 B
b10 b
b10 $"
#919
b1000100001100000100000 "
b1000 B
b11 $"
#920
b1000100010000000100010 "
b1100 B
b11111111111111111111111111111110 b
b100 $"
#921
b1000100010100000100100 "
b10000 B
b0 b
b101 $"
#922
b1000100011000000100101 "
b10100 B
b10 b
b110 $"
#923
b1000100011100000100110 "
b11000 B
b111 $"
#924
b1000100100000000101010 "
b11100 B
b1 b
b1000 $"
#925
b10101100000000010000000000001000 "
b100000 B
b0 b
b0 $"
0*"
#926
b10101100000000100000000000000100 "
b100100 B
#927
b10000000001010000000000000010 "
b101000 B
#928
b1000000000000000000000001111 "
b110100 B
#929
b10001100000000000000000000000000 "
b111100 B
b10 b
1*"
#930
b0 "
b1000000 B
b0 b
0*"
#931
b1000000000000000000000000000 "
b1000100 B
#932
b10001100000000010000000000000100 "
b0 B
b1 $"
1*"
#933
b10001100000000100000000000001000 "
b100 B
b10 b
b10 $"
#934
b1000100001100000100000 "
b1000 B
b11 $"
#935
b1000100010000000100010 "
b1100 B
b11111111111111111111111111111110 b
b100 $"
#936
b1000100010100000100100 "
b10000 B
b0 b
b101 $"
#937
b1000100011000000100101 "
b10100 B
b10 b
b110 $"
#938
b1000100011100000100110 "
b11000 B
b111 $"
#939
b1000100100000000101010 "
b11100 B
b1 b
b1000 $"
#940
b10101100000000010000000000001000 "
b100000 B
b0 b
b0 $"
0*"
#941
b10101100000000100000000000000100 "
b100100 B
#942
b10000000001010000000000000010 "
b101000 B
#943
b1000000000000000000000001111 "
b110100 B
#944
b10001100000000000000000000000000 "
b111100 B
b10 b
1*"
#945
b0 "
b1000000 B
b0 b
0*"
#946
b1000000000000000000000000000 "
b1000100 B
#947
b10001100000000010000000000000100 "
b0 B
b1 $"
1*"
#948
b10001100000000100000000000001000 "
b100 B
b10 b
b10 $"
#949
b1000100001100000100000 "
b1000 B
b11 $"
#950
b1000100010000000100010 "
b1100 B
b11111111111111111111111111111110 b
b100 $"
#951
b1000100010100000100100 "
b10000 B
b0 b
b101 $"
#952
b1000100011000000100101 "
b10100 B
b10 b
b110 $"
#953
b1000100011100000100110 "
b11000 B
b111 $"
#954
b1000100100000000101010 "
b11100 B
b1 b
b1000 $"
#955
b10101100000000010000000000001000 "
b100000 B
b0 b
b0 $"
0*"
#956
b10101100000000100000000000000100 "
b100100 B
#957
b10000000001010000000000000010 "
b101000 B
#958
b1000000000000000000000001111 "
b110100 B
#959
b10001100000000000000000000000000 "
b111100 B
b10 b
1*"
#960
b0 "
b1000000 B
b0 b
0*"
#961
b1000000000000000000000000000 "
b1000100 B
#962
b10001100000000010000000000000100 "
b0 B
b1 $"
1*"
#963
b10001100000000100000000000001000 "
b100 B
b10 b
b10 $"
#964
b1000100001100000100000 "
b1000 B
b11 $"
#965
b1000100010000000100010 "
b1100 B
b11111111111111111111111111111110 b
b100 $"
#966
b1000100010100000100100 "
b10000 B
b0 b
b101 $"
#967
b1000100011000000100101 "
b10100 B
b10 b
b110 $"
#968
b1000100011100000100110 "
b11000 B
b111 $"
#969
b1000100100000000101010 "
b11100 B
b1 b
b1000 $"
#970
b10101100000000010000000000001000 "
b100000 B
b0 b
b0 $"
0*"
#971
b10101100000000100000000000000100 "
b100100 B
#972
b10000000001010000000000000010 "
b101000 B
#973
b1000000000000000000000001111 "
b110100 B
#974
b10001100000000000000000000000000 "
b111100 B
b10 b
1*"
#975
b0 "
b1000000 B
b0 b
0*"
#976
b1000000000000000000000000000 "
b1000100 B
#977
b10001100000000010000000000000100 "
b0 B
b1 $"
1*"
#978
b10001100000000100000000000001000 "
b100 B
b10 b
b10 $"
#979
b1000100001100000100000 "
b1000 B
b11 $"
#980
b1000100010000000100010 "
b1100 B
b11111111111111111111111111111110 b
b100 $"
#981
b1000100010100000100100 "
b10000 B
b0 b
b101 $"
#982
b1000100011000000100101 "
b10100 B
b10 b
b110 $"
#983
b1000100011100000100110 "
b11000 B
b111 $"
#984
b1000100100000000101010 "
b11100 B
b1 b
b1000 $"
#985
b10101100000000010000000000001000 "
b100000 B
b0 b
b0 $"
0*"
#986
b10101100000000100000000000000100 "
b100100 B
#987
b10000000001010000000000000010 "
b101000 B
#988
b1000000000000000000000001111 "
b110100 B
#989
b10001100000000000000000000000000 "
b111100 B
b10 b
1*"
#990
b0 "
b1000000 B
b0 b
0*"
#991
b1000000000000000000000000000 "
b1000100 B
#992
b10001100000000010000000000000100 "
b0 B
b1 $"
1*"
#993
b10001100000000100000000000001000 "
b100 B
b10 b
b10 $"
#994
b1000100001100000100000 "
b1000 B
b11 $"
#995
b1000100010000000100010 "
b1100 B
b11111111111111111111111111111110 b
b100 $"
#996
b1000100010100000100100 "
b10000 B
b0 b
b101 $"
